{
	"info": {
		"_postman_id": "ab3e12ed-ce92-420d-b0b1-0edc62fcdb4d",
		"name": "S35 Activity",
		"schema": "https://schema.getpostman.com/json/collection/v2.1.0/collection.json"
	},
	"item": [
		{
			"name": "Users",
			"item": [
				{
					"name": "Signup",
					"request": {
						"method": "POST",
						"header": [],
						"body": {
							"mode": "raw",
							"raw": "{\r\n    \"name\": \"akosi\",\r\n    \"password\": \"nyemnyem\"\r\n}",
							"options": {
								"raw": {
									"language": "json"
								}
							}
						},
						"url": {
							"raw": "http://localhost:3001/signup",
							"protocol": "http",
							"host": [
								"localhost"
							],
							"port": "3001",
							"path": [
								"signup"
							]
						}
					},
					"response": []
				},
				{
					"name": "Get all Users",
					"request": {
						"method": "GET",
						"header": [],
						"url": {
							"raw": "http://localhost:3001/users",
							"protocol": "http",
							"host": [
								"localhost"
							],
							"port": "3001",
							"path": [
								"users"
							]
						}
					},
					"response": []
				}
			]
		}
	]
}